…
eqvis::eq_load_data()
#> Warning: 5257 parsing failures.
#>  row        col           expected actual                                                                                                              file
#> 1064 SECOND     1/0/T/F/TRUE/FALSE    5.0 'C:/Users/Akbar.Punjwani/AppData/Local/Temp/RtmpyCYW7o/temp_libpath44183763489d/eqvis/extdata/earthquakes.tsv.gz'
#> 1243 SECOND     1/0/T/F/TRUE/FALSE   35.0 'C:/Users/Akbar.Punjwani/AppData/Local/Temp/RtmpyCYW7o/temp_libpath44183763489d/eqvis/extdata/earthquakes.tsv.gz'
#> 1482 EQ_MAG_MFA 1/0/T/F/TRUE/FALSE  7.2   'C:/Users/Akbar.Punjwani/AppData/Local/Temp/RtmpyCYW7o/temp_libpath44183763489d/eqvis/extdata/earthquakes.tsv.gz'
#> 1483 EQ_MAG_MFA 1/0/T/F/TRUE/FALSE  7     'C:/Users/Akbar.Punjwani/AppData/Local/Temp/RtmpyCYW7o/temp_libpath44183763489d/eqvis/extdata/earthquakes.tsv.gz'
#> 1484 EQ_MAG_MFA 1/0/T/F/TRUE/FALSE  7.1   'C:/Users/Akbar.Punjwani/AppData/Local/Temp/RtmpyCYW7o/temp_libpath44183763489d/eqvis/extdata/earthquakes.tsv.gz'
#> .... .......... .................. ...... .................................................................................................................
#> See problems(...) for more details.
#> Warning: `tbl_df()` is deprecated as of dplyr 1.0.0.
#> Please use `tibble::as_tibble()` instead.
#> This warning is displayed once every 8 hours.
#> Call `lifecycle::last_warnings()` to see where this warning was generated.
#> # A tibble: 5,937 x 47
#>      I_D FLAG_TSUNAMI  YEAR MONTH   DAY  HOUR MINUTE SECOND FOCAL_DEPTH
#>    <dbl> <chr>        <dbl> <dbl> <dbl> <dbl>  <dbl> <lgl>        <dbl>
#>  1     1 <NA>         -2150    NA    NA    NA     NA NA              NA
#>  2     3 <NA>         -2000    NA    NA    NA     NA NA              18
#>  3     2 Tsu          -2000    NA    NA    NA     NA NA              NA
#>  4  5877 Tsu          -1610    NA    NA    NA     NA NA              NA
#>  5     8 <NA>         -1566    NA    NA    NA     NA NA              NA
#>  6    11 <NA>         -1450    NA    NA    NA     NA NA              NA
#>  7  9712 Tsu          -1365    NA    NA    NA     NA NA              NA
#>  8    12 <NA>         -1250    NA    NA    NA     NA NA              NA
#>  9    13 <NA>         -1050    NA    NA    NA     NA NA              NA
#> 10    14 <NA>          -759    NA    NA    NA     NA NA              NA
#> # ... with 5,927 more rows, and 38 more variables: EQ_PRIMARY <chr>,
#> #   EQ_MAG_MW <chr>, EQ_MAG_MS <chr>, EQ_MAG_MB <lgl>, EQ_MAG_ML <dbl>,
#> #   EQ_MAG_MFA <lgl>, EQ_MAG_UNK <chr>, INTENSITY <dbl>, COUNTRY <chr>,
#> #   STATE <chr>, LOCATION_NAME <chr>, LATITUDE <chr>, LONGITUDE <chr>,
#> #   REGION_CODE <dbl>, DEATHS <chr>, DEATHS_DESCRIPTION <dbl>, MISSING <lgl>,
#> #   MISSING_DESCRIPTION <dbl>, INJURIES <chr>, INJURIES_DESCRIPTION <dbl>,
#> #   DAMAGE_MILLIONS_DOLLARS <lgl>, DAMAGE_DESCRIPTION <dbl>,
#> #   HOUSES_DESTROYED <dbl>, HOUSES_DESTROYED_DESCRIPTION <dbl>,
#> #   HOUSES_DAMAGED <dbl>, HOUSES_DAMAGED_DESCRIPTION <dbl>, TOTAL_DEATHS <chr>,
…
``` r
eqvis::eq_location_clean()
#> Warning: 5257 parsing failures.
#>  row        col           expected actual                                                                                                              file
#> 1064 SECOND     1/0/T/F/TRUE/FALSE    5.0 'C:/Users/Akbar.Punjwani/AppData/Local/Temp/RtmpyCYW7o/temp_libpath44183763489d/eqvis/extdata/earthquakes.tsv.gz'
#> 1243 SECOND     1/0/T/F/TRUE/FALSE   35.0 'C:/Users/Akbar.Punjwani/AppData/Local/Temp/RtmpyCYW7o/temp_libpath44183763489d/eqvis/extdata/earthquakes.tsv.gz'
#> 1482 EQ_MAG_MFA 1/0/T/F/TRUE/FALSE  7.2   'C:/Users/Akbar.Punjwani/AppData/Local/Temp/RtmpyCYW7o/temp_libpath44183763489d/eqvis/extdata/earthquakes.tsv.gz'
#> 1483 EQ_MAG_MFA 1/0/T/F/TRUE/FALSE  7     'C:/Users/Akbar.Punjwani/AppData/Local/Temp/RtmpyCYW7o/temp_libpath44183763489d/eqvis/extdata/earthquakes.tsv.gz'
#> 1484 EQ_MAG_MFA 1/0/T/F/TRUE/FALSE  7.1   'C:/Users/Akbar.Punjwani/AppData/Local/Temp/RtmpyCYW7o/temp_libpath44183763489d/eqvis/extdata/earthquakes.tsv.gz'
#> .... .......... .................. ...... .................................................................................................................
#> See problems(...) for more details.
#> Warning: Expected 4 pieces. Missing pieces filled with `NA` in 5888 rows [1, 2,
#> 3, 4, 5, 6, 7, 8, 9, 10, 11, 12, 13, 14, 15, 16, 17, 18, 19, 20, ...].
#> # A tibble: 5,937 x 47
#>      I_D FLAG_TSUNAMI  YEAR MONTH   DAY  HOUR MINUTE SECOND FOCAL_DEPTH
#>    <dbl> <chr>        <dbl> <dbl> <dbl> <dbl>  <dbl> <lgl>        <dbl>
#>  1     1 <NA>         -2150    NA    NA    NA     NA NA              NA
#>  2     3 <NA>         -2000    NA    NA    NA     NA NA              18
#>  3     2 Tsu          -2000    NA    NA    NA     NA NA              NA
#>  4  5877 Tsu          -1610    NA    NA    NA     NA NA              NA
#>  5     8 <NA>         -1566    NA    NA    NA     NA NA              NA
#>  6    11 <NA>         -1450    NA    NA    NA     NA NA              NA
#>  7  9712 Tsu          -1365    NA    NA    NA     NA NA              NA
#>  8    12 <NA>         -1250    NA    NA    NA     NA NA              NA
#>  9    13 <NA>         -1050    NA    NA    NA     NA NA              NA
#> 10    14 <NA>          -759    NA    NA    NA     NA NA              NA
#> # ... with 5,927 more rows, and 38 more variables: EQ_PRIMARY <chr>,
#> #   EQ_MAG_MW <chr>, EQ_MAG_MS <chr>, EQ_MAG_MB <lgl>, EQ_MAG_ML <dbl>,
#> #   EQ_MAG_MFA <lgl>, EQ_MAG_UNK <chr>, INTENSITY <dbl>, STATE <chr>,
#> #   LATITUDE <chr>, COUNTRY <fct>, LONGITUDE <chr>, REGION_CODE <dbl>,
#> #   DEATHS <chr>, DEATHS_DESCRIPTION <dbl>, MISSING <lgl>,
#> #   MISSING_DESCRIPTION <dbl>, INJURIES <chr>, INJURIES_DESCRIPTION <dbl>,
#> #   DAMAGE_MILLIONS_DOLLARS <lgl>, DAMAGE_DESCRIPTION <dbl>,
#> #   HOUSES_DESTROYED <dbl>, HOUSES_DESTROYED_DESCRIPTION <dbl>,
#> #   HOUSES_DAMAGED <dbl>, HOUSES_DAMAGED_DESCRIPTION <dbl>, TOTAL_DEATHS <chr>,
…
``` r
eqvis::eq_clean_data()
#> Warning: 5257 parsing failures.
#>  row        col           expected actual                                                                                                              file
#> 1064 SECOND     1/0/T/F/TRUE/FALSE    5.0 'C:/Users/Akbar.Punjwani/AppData/Local/Temp/RtmpyCYW7o/temp_libpath44183763489d/eqvis/extdata/earthquakes.tsv.gz'
#> 1243 SECOND     1/0/T/F/TRUE/FALSE   35.0 'C:/Users/Akbar.Punjwani/AppData/Local/Temp/RtmpyCYW7o/temp_libpath44183763489d/eqvis/extdata/earthquakes.tsv.gz'
#> 1482 EQ_MAG_MFA 1/0/T/F/TRUE/FALSE  7.2   'C:/Users/Akbar.Punjwani/AppData/Local/Temp/RtmpyCYW7o/temp_libpath44183763489d/eqvis/extdata/earthquakes.tsv.gz'
#> 1483 EQ_MAG_MFA 1/0/T/F/TRUE/FALSE  7     'C:/Users/Akbar.Punjwani/AppData/Local/Temp/RtmpyCYW7o/temp_libpath44183763489d/eqvis/extdata/earthquakes.tsv.gz'
#> 1484 EQ_MAG_MFA 1/0/T/F/TRUE/FALSE  7.1   'C:/Users/Akbar.Punjwani/AppData/Local/Temp/RtmpyCYW7o/temp_libpath44183763489d/eqvis/extdata/earthquakes.tsv.gz'
#> .... .......... .................. ...... .................................................................................................................
#> See problems(...) for more details.
#> Warning: Expected 4 pieces. Missing pieces filled with `NA` in 5888 rows [1, 2,
#> 3, 4, 5, 6, 7, 8, 9, 10, 11, 12, 13, 14, 15, 16, 17, 18, 19, 20, ...].
#> Warning: 18 failed to parse.
#> # A tibble: 5,937 x 12
#>    DATE        YEAR MONTH   DAY LATITUDE LONGITUDE COUNTRY LOCATION_NAME
#>    <date>     <dbl> <dbl> <dbl>    <dbl>     <dbl> <fct>   <chr>        
#>  1 2150-01-01 -2150    NA    NA     31.1      35.5 JORDAN  "Bab-A-Daraa~
#>  2 2000-01-01 -2000    NA    NA     38        58.2 TURKME~ "W"          
#>  3 2000-01-01 -2000    NA    NA     35.7      35.8 SYRIA   "Ugarit"     
#>  4 1610-01-01 -1610    NA    NA     36.4      25.4 GREECE  "Thera Islan~
#>  5 1566-01-01 -1566    NA    NA     31.5      35.3 ISRAEL  "Ariha (Jeri~
#>  6 1450-01-01 -1450    NA    NA     35.5      25.5 ITALY   "Lacus Cimin~
#>  7 1365-01-01 -1365    NA    NA     35.7      35.8 SYRIAN~ ""           
#>  8 1250-01-01 -1250    NA    NA     32        35.5 ISRAEL  "Ariha (Jeri~
#>  9 1050-01-01 -1050    NA    NA     29.6      35   JORDAN  "Sw:  Timna ~
#> 10 7590-10-01  -759    NA    NA     33        35.5 ISRAEL  "Jerusalem"  
#> # ... with 5,927 more rows, and 4 more variables: INTENSITY <dbl>,
#> #   TOTAL_DEATHS <int>, EQ_PRIMARY <dbl>, EQ_MAG_MW <dbl>
```
…
